\relax 
\providecommand\hyper@newdestlabel[2]{}
\bibstyle{apsr}
\catcode 95\active
\providecommand\HyperFirstAtBeginDocument{\AtBeginDocument}
\HyperFirstAtBeginDocument{\ifx\hyper@anchor\@undefined
\global\let\oldcontentsline\contentsline
\gdef\contentsline#1#2#3#4{\oldcontentsline{#1}{#2}{#3}}
\global\let\oldnewlabel\newlabel
\gdef\newlabel#1#2{\newlabelxx{#1}#2}
\gdef\newlabelxx#1#2#3#4#5#6{\oldnewlabel{#1}{{#2}{#3}}}
\AtEndDocument{\ifx\hyper@anchor\@undefined
\let\contentsline\oldcontentsline
\let\newlabel\oldnewlabel
\fi}
\fi}
\global\let\hyper@last\relax 
\gdef\HyperFirstAtBeginDocument#1{#1}
\providecommand\HyField@AuxAddToFields[1]{}
\providecommand\HyField@AuxAddToCoFields[2]{}
\@writefile{toc}{\contentsline {section}{Programmes and datasets}{1}{section*.1}}
\@writefile{toc}{\contentsline {section}{Additional maps}{1}{section*.2}}
\@writefile{lot}{\contentsline {table}{\numberline {1}{\ignorespaces Structure and variable definition of array \texttt  {sim\_param.csv} }}{2}{table.1}}
\newlabel{tab1}{{1}{2}{Structure and variable definition of array \texttt {sim\_param.csv}}{table.1}{}}
\@writefile{lof}{\contentsline {figure}{\numberline {1}{\ignorespaces Map of age-specific prevalence proportions of {LLTI} (in \%) in the 2011 census}}{3}{figure.1}}
\newlabel{p3:fig:map.census}{{1}{3}{Map of age-specific prevalence proportions of {LLTI} (in \%) in the 2011 census}{figure.1}{}}
\@writefile{lof}{\contentsline {figure}{\numberline {2}{\ignorespaces Map of posterior mean age-specific proportions of LLTI (in \%) averaged across 400 iterations of scenario S3 with sampling fraction $ f=0.02 $}}{4}{figure.2}}
\newlabel{p3:fig:map.S3}{{2}{4}{Map of posterior mean age-specific proportions of LLTI (in \%) averaged across 400 iterations of scenario S3 with sampling fraction $ f=0.02 $}{figure.2}{}}
